%YAML 1.1
%TAG !u! tag:unity3d.com,2011:
--- !u!1 &296728475480726637
GameObject:
  m_ObjectHideFlags: 0
  m_CorrespondingSourceObject: {fileID: 0}
  m_PrefabInstance: {fileID: 0}
  m_PrefabAsset: {fileID: 0}
  serializedVersion: 6
  m_Component:
  - component: {fileID: 1397220950942020453}
  m_Layer: 5
  m_Name: Draught Vial (Card)
  m_TagString: Untagged
  m_Icon: {fileID: 0}
  m_NavMeshLayer: 0
  m_StaticEditorFlags: 0
  m_IsActive: 1
--- !u!224 &1397220950942020453
RectTransform:
  m_ObjectHideFlags: 0
  m_CorrespondingSourceObject: {fileID: 0}
  m_PrefabInstance: {fileID: 0}
  m_PrefabAsset: {fileID: 0}
  m_GameObject: {fileID: 296728475480726637}
  m_LocalRotation: {x: 0, y: 0, z: 0, w: 1}
  m_LocalPosition: {x: 0, y: 0, z: 0}
  m_LocalScale: {x: 1, y: 1, z: 1}
  m_Children:
  - {fileID: 2278610837757501267}
  m_Father: {fileID: 0}
  m_RootOrder: 0
  m_LocalEulerAnglesHint: {x: 0, y: 0, z: 0}
  m_AnchorMin: {x: 0.5, y: 0.5}
  m_AnchorMax: {x: 0.5, y: 0.5}
  m_AnchoredPosition: {x: 0, y: 0}
  m_SizeDelta: {x: 137.5, y: 200}
  m_Pivot: {x: 0.5, y: 0.5}
--- !u!1001 &463667000942557340
PrefabInstance:
  m_ObjectHideFlags: 0
  serializedVersion: 2
  m_Modification:
    m_TransformParent: {fileID: 1397220950942020453}
    m_Modifications:
    - target: {fileID: 1869001360354338764, guid: c1ea2091c049d0c469137eaa5cd6d399, type: 3}
      propertyPath: m_Name
      value: Card Template
      objectReference: {fileID: 0}
    - target: {fileID: 1869001360354338767, guid: c1ea2091c049d0c469137eaa5cd6d399, type: 3}
      propertyPath: m_Pivot.x
      value: 0.5
      objectReference: {fileID: 0}
    - target: {fileID: 1869001360354338767, guid: c1ea2091c049d0c469137eaa5cd6d399, type: 3}
      propertyPath: m_Pivot.y
      value: 0.5
      objectReference: {fileID: 0}
    - target: {fileID: 1869001360354338767, guid: c1ea2091c049d0c469137eaa5cd6d399, type: 3}
      propertyPath: m_RootOrder
      value: 0
      objectReference: {fileID: 0}
    - target: {fileID: 1869001360354338767, guid: c1ea2091c049d0c469137eaa5cd6d399, type: 3}
      propertyPath: m_AnchorMax.x
      value: 0.5
      objectReference: {fileID: 0}
    - target: {fileID: 1869001360354338767, guid: c1ea2091c049d0c469137eaa5cd6d399, type: 3}
      propertyPath: m_AnchorMax.y
      value: 0.5
      objectReference: {fileID: 0}
    - target: {fileID: 1869001360354338767, guid: c1ea2091c049d0c469137eaa5cd6d399, type: 3}
      propertyPath: m_AnchorMin.x
      value: 0.5
      objectReference: {fileID: 0}
    - target: {fileID: 1869001360354338767, guid: c1ea2091c049d0c469137eaa5cd6d399, type: 3}
      propertyPath: m_AnchorMin.y
      value: 0.5
      objectReference: {fileID: 0}
    - target: {fileID: 1869001360354338767, guid: c1ea2091c049d0c469137eaa5cd6d399, type: 3}
      propertyPath: m_SizeDelta.x
      value: 200
      objectReference: {fileID: 0}
    - target: {fileID: 1869001360354338767, guid: c1ea2091c049d0c469137eaa5cd6d399, type: 3}
      propertyPath: m_SizeDelta.y
      value: 200
      objectReference: {fileID: 0}
    - target: {fileID: 1869001360354338767, guid: c1ea2091c049d0c469137eaa5cd6d399, type: 3}
      propertyPath: m_LocalPosition.x
      value: 0
      objectReference: {fileID: 0}
    - target: {fileID: 1869001360354338767, guid: c1ea2091c049d0c469137eaa5cd6d399, type: 3}
      propertyPath: m_LocalPosition.y
      value: 0
      objectReference: {fileID: 0}
    - target: {fileID: 1869001360354338767, guid: c1ea2091c049d0c469137eaa5cd6d399, type: 3}
      propertyPath: m_LocalPosition.z
      value: 0
      objectReference: {fileID: 0}
    - target: {fileID: 1869001360354338767, guid: c1ea2091c049d0c469137eaa5cd6d399, type: 3}
      propertyPath: m_LocalRotation.w
      value: 1
      objectReference: {fileID: 0}
    - target: {fileID: 1869001360354338767, guid: c1ea2091c049d0c469137eaa5cd6d399, type: 3}
      propertyPath: m_LocalRotation.x
      value: -0
      objectReference: {fileID: 0}
    - target: {fileID: 1869001360354338767, guid: c1ea2091c049d0c469137eaa5cd6d399, type: 3}
      propertyPath: m_LocalRotation.y
      value: -0
      objectReference: {fileID: 0}
    - target: {fileID: 1869001360354338767, guid: c1ea2091c049d0c469137eaa5cd6d399, type: 3}
      propertyPath: m_LocalRotation.z
      value: -0
      objectReference: {fileID: 0}
    - target: {fileID: 1869001360354338767, guid: c1ea2091c049d0c469137eaa5cd6d399, type: 3}
      propertyPath: m_AnchoredPosition.x
      value: 0
      objectReference: {fileID: 0}
    - target: {fileID: 1869001360354338767, guid: c1ea2091c049d0c469137eaa5cd6d399, type: 3}
      propertyPath: m_AnchoredPosition.y
      value: 0
      objectReference: {fileID: 0}
    - target: {fileID: 1869001360354338767, guid: c1ea2091c049d0c469137eaa5cd6d399, type: 3}
      propertyPath: m_LocalEulerAnglesHint.x
      value: 0
      objectReference: {fileID: 0}
    - target: {fileID: 1869001360354338767, guid: c1ea2091c049d0c469137eaa5cd6d399, type: 3}
      propertyPath: m_LocalEulerAnglesHint.y
      value: 0
      objectReference: {fileID: 0}
    - target: {fileID: 1869001360354338767, guid: c1ea2091c049d0c469137eaa5cd6d399, type: 3}
      propertyPath: m_LocalEulerAnglesHint.z
      value: 0
      objectReference: {fileID: 0}
    - target: {fileID: 5195305620921686865, guid: c1ea2091c049d0c469137eaa5cd6d399, type: 3}
      propertyPath: m_AnchorMax.y
      value: 1
      objectReference: {fileID: 0}
    - target: {fileID: 5195305620921686865, guid: c1ea2091c049d0c469137eaa5cd6d399, type: 3}
      propertyPath: m_AnchorMin.y
      value: 1
      objectReference: {fileID: 0}
    - target: {fileID: 5195305620921686865, guid: c1ea2091c049d0c469137eaa5cd6d399, type: 3}
      propertyPath: m_AnchoredPosition.x
      value: 60
      objectReference: {fileID: 0}
    - target: {fileID: 5195305620921686865, guid: c1ea2091c049d0c469137eaa5cd6d399, type: 3}
      propertyPath: m_AnchoredPosition.y
      value: -12.5
      objectReference: {fileID: 0}
    - target: {fileID: 5383661973300131712, guid: c1ea2091c049d0c469137eaa5cd6d399, type: 3}
      propertyPath: m_IsActive
      value: 0
      objectReference: {fileID: 0}
    - target: {fileID: 5452431731277556816, guid: c1ea2091c049d0c469137eaa5cd6d399, type: 3}
      propertyPath: m_text
      value: Draught
      objectReference: {fileID: 0}
    - target: {fileID: 5637366599484171855, guid: c1ea2091c049d0c469137eaa5cd6d399, type: 3}
      propertyPath: m_Sprite
      value: 
      objectReference: {fileID: -4855341056118581759, guid: 624982ae276016044ae62a5292954ea4, type: 3}
    - target: {fileID: 6821463150846133989, guid: c1ea2091c049d0c469137eaa5cd6d399, type: 3}
      propertyPath: m_AnchorMax.y
      value: 0
      objectReference: {fileID: 0}
    - target: {fileID: 6821463150846133989, guid: c1ea2091c049d0c469137eaa5cd6d399, type: 3}
      propertyPath: m_AnchorMin.y
      value: 0
      objectReference: {fileID: 0}
    - target: {fileID: 6821463150846133989, guid: c1ea2091c049d0c469137eaa5cd6d399, type: 3}
      propertyPath: m_AnchoredPosition.x
      value: 0
      objectReference: {fileID: 0}
    - target: {fileID: 6821463150846133989, guid: c1ea2091c049d0c469137eaa5cd6d399, type: 3}
      propertyPath: m_AnchoredPosition.y
      value: 0
      objectReference: {fileID: 0}
    m_RemovedComponents: []
  m_SourcePrefab: {fileID: 100100000, guid: c1ea2091c049d0c469137eaa5cd6d399, type: 3}
--- !u!224 &2278610837757501267 stripped
RectTransform:
  m_CorrespondingSourceObject: {fileID: 1869001360354338767, guid: c1ea2091c049d0c469137eaa5cd6d399, type: 3}
  m_PrefabInstance: {fileID: 463667000942557340}
  m_PrefabAsset: {fileID: 0}
