%YAML 1.1
%TAG !u! tag:unity3d.com,2011:
--- !u!1 &236185474760571995
GameObject:
  m_ObjectHideFlags: 0
  m_CorrespondingSourceObject: {fileID: 0}
  m_PrefabInstance: {fileID: 0}
  m_PrefabAsset: {fileID: 0}
  serializedVersion: 6
  m_Component:
  - component: {fileID: 2358367656836072068}
  m_Layer: 5
  m_Name: UI Card
  m_TagString: Untagged
  m_Icon: {fileID: 0}
  m_NavMeshLayer: 0
  m_StaticEditorFlags: 0
  m_IsActive: 1
--- !u!224 &2358367656836072068
RectTransform:
  m_ObjectHideFlags: 0
  m_CorrespondingSourceObject: {fileID: 0}
  m_PrefabInstance: {fileID: 0}
  m_PrefabAsset: {fileID: 0}
  m_GameObject: {fileID: 236185474760571995}
  m_LocalRotation: {x: 0, y: 0, z: 0, w: 1}
  m_LocalPosition: {x: 0, y: 0, z: 0}
  m_LocalScale: {x: 1, y: 1, z: 1}
  m_Children:
  - {fileID: 3022662949496733311}
  m_Father: {fileID: 0}
  m_RootOrder: 0
  m_LocalEulerAnglesHint: {x: 0, y: 0, z: 0}
  m_AnchorMin: {x: 0.5, y: 0.5}
  m_AnchorMax: {x: 0.5, y: 0.5}
  m_AnchoredPosition: {x: 0, y: 0}
  m_SizeDelta: {x: 137.5, y: 200}
  m_Pivot: {x: 0.5, y: 0.5}
--- !u!1001 &3459504646959716784
PrefabInstance:
  m_ObjectHideFlags: 0
  serializedVersion: 2
  m_Modification:
    m_TransformParent: {fileID: 2358367656836072068}
    m_Modifications:
    - target: {fileID: 956746962040052544, guid: c1ea2091c049d0c469137eaa5cd6d399, type: 3}
      propertyPath: m_AnchoredPosition.x
      value: -7.5
      objectReference: {fileID: 0}
    - target: {fileID: 1869001360354338764, guid: c1ea2091c049d0c469137eaa5cd6d399, type: 3}
      propertyPath: m_Name
      value: Card Template
      objectReference: {fileID: 0}
    - target: {fileID: 1869001360354338767, guid: c1ea2091c049d0c469137eaa5cd6d399, type: 3}
      propertyPath: m_Pivot.x
      value: 0.5
      objectReference: {fileID: 0}
    - target: {fileID: 1869001360354338767, guid: c1ea2091c049d0c469137eaa5cd6d399, type: 3}
      propertyPath: m_Pivot.y
      value: 0.5
      objectReference: {fileID: 0}
    - target: {fileID: 1869001360354338767, guid: c1ea2091c049d0c469137eaa5cd6d399, type: 3}
      propertyPath: m_RootOrder
      value: 0
      objectReference: {fileID: 0}
    - target: {fileID: 1869001360354338767, guid: c1ea2091c049d0c469137eaa5cd6d399, type: 3}
      propertyPath: m_AnchorMax.x
      value: 0.5
      objectReference: {fileID: 0}
    - target: {fileID: 1869001360354338767, guid: c1ea2091c049d0c469137eaa5cd6d399, type: 3}
      propertyPath: m_AnchorMax.y
      value: 0.5
      objectReference: {fileID: 0}
    - target: {fileID: 1869001360354338767, guid: c1ea2091c049d0c469137eaa5cd6d399, type: 3}
      propertyPath: m_AnchorMin.x
      value: 0.5
      objectReference: {fileID: 0}
    - target: {fileID: 1869001360354338767, guid: c1ea2091c049d0c469137eaa5cd6d399, type: 3}
      propertyPath: m_AnchorMin.y
      value: 0.5
      objectReference: {fileID: 0}
    - target: {fileID: 1869001360354338767, guid: c1ea2091c049d0c469137eaa5cd6d399, type: 3}
      propertyPath: m_SizeDelta.x
      value: 200
      objectReference: {fileID: 0}
    - target: {fileID: 1869001360354338767, guid: c1ea2091c049d0c469137eaa5cd6d399, type: 3}
      propertyPath: m_SizeDelta.y
      value: 200
      objectReference: {fileID: 0}
    - target: {fileID: 1869001360354338767, guid: c1ea2091c049d0c469137eaa5cd6d399, type: 3}
      propertyPath: m_LocalPosition.x
      value: 0
      objectReference: {fileID: 0}
    - target: {fileID: 1869001360354338767, guid: c1ea2091c049d0c469137eaa5cd6d399, type: 3}
      propertyPath: m_LocalPosition.y
      value: 0
      objectReference: {fileID: 0}
    - target: {fileID: 1869001360354338767, guid: c1ea2091c049d0c469137eaa5cd6d399, type: 3}
      propertyPath: m_LocalPosition.z
      value: 0
      objectReference: {fileID: 0}
    - target: {fileID: 1869001360354338767, guid: c1ea2091c049d0c469137eaa5cd6d399, type: 3}
      propertyPath: m_LocalRotation.w
      value: 1
      objectReference: {fileID: 0}
    - target: {fileID: 1869001360354338767, guid: c1ea2091c049d0c469137eaa5cd6d399, type: 3}
      propertyPath: m_LocalRotation.x
      value: -0
      objectReference: {fileID: 0}
    - target: {fileID: 1869001360354338767, guid: c1ea2091c049d0c469137eaa5cd6d399, type: 3}
      propertyPath: m_LocalRotation.y
      value: -0
      objectReference: {fileID: 0}
    - target: {fileID: 1869001360354338767, guid: c1ea2091c049d0c469137eaa5cd6d399, type: 3}
      propertyPath: m_LocalRotation.z
      value: -0
      objectReference: {fileID: 0}
    - target: {fileID: 1869001360354338767, guid: c1ea2091c049d0c469137eaa5cd6d399, type: 3}
      propertyPath: m_AnchoredPosition.x
      value: 0
      objectReference: {fileID: 0}
    - target: {fileID: 1869001360354338767, guid: c1ea2091c049d0c469137eaa5cd6d399, type: 3}
      propertyPath: m_AnchoredPosition.y
      value: 0
      objectReference: {fileID: 0}
    - target: {fileID: 1869001360354338767, guid: c1ea2091c049d0c469137eaa5cd6d399, type: 3}
      propertyPath: m_LocalEulerAnglesHint.x
      value: 0
      objectReference: {fileID: 0}
    - target: {fileID: 1869001360354338767, guid: c1ea2091c049d0c469137eaa5cd6d399, type: 3}
      propertyPath: m_LocalEulerAnglesHint.y
      value: 0
      objectReference: {fileID: 0}
    - target: {fileID: 1869001360354338767, guid: c1ea2091c049d0c469137eaa5cd6d399, type: 3}
      propertyPath: m_LocalEulerAnglesHint.z
      value: 0
      objectReference: {fileID: 0}
    - target: {fileID: 3316960747138223806, guid: c1ea2091c049d0c469137eaa5cd6d399, type: 3}
      propertyPath: m_SizeDelta.x
      value: 111
      objectReference: {fileID: 0}
    - target: {fileID: 3316960747138223806, guid: c1ea2091c049d0c469137eaa5cd6d399, type: 3}
      propertyPath: m_AnchoredPosition.y
      value: -25.5
      objectReference: {fileID: 0}
    - target: {fileID: 4470721394571566862, guid: c1ea2091c049d0c469137eaa5cd6d399, type: 3}
      propertyPath: m_AnchoredPosition.x
      value: -6.4
      objectReference: {fileID: 0}
    - target: {fileID: 5452431731277556816, guid: c1ea2091c049d0c469137eaa5cd6d399, type: 3}
      propertyPath: m_fontSizeBase
      value: 6.25
      objectReference: {fileID: 0}
    - target: {fileID: 6605068263429127648, guid: c1ea2091c049d0c469137eaa5cd6d399, type: 3}
      propertyPath: m_text
      value: 00
      objectReference: {fileID: 0}
    - target: {fileID: 6605068263429127648, guid: c1ea2091c049d0c469137eaa5cd6d399, type: 3}
      propertyPath: m_fontSize
      value: 25
      objectReference: {fileID: 0}
    - target: {fileID: 6605068263429127648, guid: c1ea2091c049d0c469137eaa5cd6d399, type: 3}
      propertyPath: m_fontSizeBase
      value: 25
      objectReference: {fileID: 0}
    - target: {fileID: 6605068263429127648, guid: c1ea2091c049d0c469137eaa5cd6d399, type: 3}
      propertyPath: m_VerticalAlignment
      value: 1024
      objectReference: {fileID: 0}
    - target: {fileID: 7558684727362697646, guid: c1ea2091c049d0c469137eaa5cd6d399, type: 3}
      propertyPath: m_text
      value: 00
      objectReference: {fileID: 0}
    - target: {fileID: 7558684727362697646, guid: c1ea2091c049d0c469137eaa5cd6d399, type: 3}
      propertyPath: m_fontSize
      value: 25
      objectReference: {fileID: 0}
    - target: {fileID: 7558684727362697646, guid: c1ea2091c049d0c469137eaa5cd6d399, type: 3}
      propertyPath: m_fontSizeBase
      value: 25
      objectReference: {fileID: 0}
    - target: {fileID: 7558684727362697646, guid: c1ea2091c049d0c469137eaa5cd6d399, type: 3}
      propertyPath: m_VerticalAlignment
      value: 1024
      objectReference: {fileID: 0}
    m_RemovedComponents: []
  m_SourcePrefab: {fileID: 100100000, guid: c1ea2091c049d0c469137eaa5cd6d399, type: 3}
--- !u!224 &3022662949496733311 stripped
RectTransform:
  m_CorrespondingSourceObject: {fileID: 1869001360354338767, guid: c1ea2091c049d0c469137eaa5cd6d399, type: 3}
  m_PrefabInstance: {fileID: 3459504646959716784}
  m_PrefabAsset: {fileID: 0}
